mode:  true
mode:  10
mode:  20
svar:  bar
From Now whole Company is working for your GRADE, Arek.
Do not mess it up.
Type a key to start: 
Lista[ 0 ] got new task: {0 82 88  2}
Boss sent task to the Lista_Guard: {0 82 88  2}
Worker[ 0 ]: {0 82 88  2}
Sent for computing:  {0 82 88  2}
{0 82 88  2}
MMG received from Worker:  {0 82 88  2}
MMG sent back to the channel, for Workers : {0 82 88  2}
{0 82 88  2}
MM[ 0 ] received from Worker:  {0 82 88  2}
MM[ 0 ] sent back to the channel, for Workers : 7216
Worker[ 0 ] sent task to the magazyn. 7216
MagazynGuard received from Worker: 7216
MagazynGuard sent to the channel, for Clients 7216
Client[ 0 ] got product from MagazynG: 7216
Boss sent task to the Lista_Guard: {1 26 41  1}
Lista[ 1 ] got new task: {1 26 41  1}
Worker[ 1 ]: {1 26 41  1}
Sent for computing:  {1 26 41  1}
{1 26 41  1}
AMG received from Worker:  {1 26 41  1}
AMG sent back to the channel, for Workers : {1 26 41  1}
{1 26 41  1}
AM[ 0 ] received from Worker:  {1 26 41  1}
AM[ 0 ] sent back to the channel, for Workers : -15
Worker[ 1 ] sent task to the magazyn. -15
MagazynGuard received from Worker: -15
MagazynGuard sent to the channel, for Clients -15
Client[ 1 ] got product from MagazynG: -15
Boss sent task to the Lista_Guard: {2 63 90  1}
Lista[ 2 ] got new task: {2 63 90  1}
Worker[ 2 ]: {2 63 90  1}
Sent for computing:  {2 63 90  1}
{2 63 90  1}
AMG received from Worker:  {2 63 90  1}
AMG sent back to the channel, for Workers : {2 63 90  1}
{2 63 90  1}
AM[ 1 ] received from Worker:  {2 63 90  1}
AM[ 1 ] sent back to the channel, for Workers : -27
Worker[ 2 ] sent task to the magazyn. -27
MagazynGuard received from Worker: -27
MagazynGuard sent to the channel, for Clients -27
Client[ 2 ] got product from MagazynG: -27
Boss sent task to the Lista_Guard: {3 38 7  2}
Lista[ 3 ] got new task: {3 38 7  2}
Worker[ 3 ]: {3 38 7  2}
Sent for computing:  {3 38 7  2}
{3 38 7  2}
MMG received from Worker:  {3 38 7  2}
MMG sent back to the channel, for Workers : {3 38 7  2}
{3 38 7  2}
MM[ 1 ] received from Worker:  {3 38 7  2}
MM[ 1 ] sent back to the channel, for Workers : 266
Worker[ 3 ] sent task to the magazyn. 266
MagazynGuard received from Worker: 266
MagazynGuard sent to the channel, for Clients 266
Client[ 3 ] got product from MagazynG: 266
Boss sent task to the Lista_Guard: {4 48 48  1}
Lista[ 4 ] got new task: {4 48 48  1}
Worker[ 4 ]: {4 48 48  1}
Sent for computing:  {4 48 48  1}
{4 48 48  1}
AMG received from Worker:  {4 48 48  1}
AMG sent back to the channel, for Workers : {4 48 48  1}
{4 48 48  1}
AM[ 2 ] received from Worker:  {4 48 48  1}
AM[ 2 ] sent back to the channel, for Workers : 0
Worker[ 4 ] sent task to the magazyn. 0
MagazynGuard received from Worker: 0
MagazynGuard sent to the channel, for Clients 0
Client[ 4 ] got product from MagazynG: 0
Boss sent task to the Lista_Guard: {5 42 9  2}
Lista[ 5 ] got new task: {5 42 9  2}
Worker[ 0 ]: {5 42 9  2}
Sent for computing:  {5 42 9  2}
{5 42 9  2}
MMG received from Worker:  {5 42 9  2}
MMG sent back to the channel, for Workers : {5 42 9  2}
{5 42 9  2}
MM[ 2 ] received from Worker:  {5 42 9  2}
MM[ 2 ] sent back to the channel, for Workers : 378
Worker[ 0 ] sent task to the magazyn. 378
MagazynGuard received from Worker: 378
MagazynGuard sent to the channel, for Clients 378
Client[ 5 ] got product from MagazynG: 378
Boss sent task to the Lista_Guard: {6 38 32  0}
Lista[ 6 ] got new task: {6 38 32  0}
Worker[ 1 ]: {6 38 32  0}
Sent for computing:  {6 38 32  0}
{6 38 32  0}
AMG received from Worker:  {6 38 32  0}
AMG sent back to the channel, for Workers : {6 38 32  0}
{6 38 32  0}
AM[ 0 ] received from Worker:  {6 38 32  0}
AM[ 0 ] sent back to the channel, for Workers : 70
Worker[ 1 ] sent task to the magazyn. 70
MagazynGuard received from Worker: 70
MagazynGuard sent to the channel, for Clients 70
Client[ 6 ] got product from MagazynG: 70
Boss sent task to the Lista_Guard: {7 95 64  1}
Lista[ 7 ] got new task: {7 95 64  1}
Worker[ 2 ]: {7 95 64  1}
Sent for computing:  {7 95 64  1}
{7 95 64  1}
AMG received from Worker:  {7 95 64  1}
AMG sent back to the channel, for Workers : {7 95 64  1}
{7 95 64  1}
AM[ 1 ] received from Worker:  {7 95 64  1}
AM[ 1 ] sent back to the channel, for Workers : 31
Worker[ 2 ] sent task to the magazyn. 31
MagazynGuard received from Worker: 31
MagazynGuard sent to the channel, for Clients 31
Client[ 7 ] got product from MagazynG: 31
Boss sent task to the Lista_Guard: {8 60 54  0}
Lista[ 8 ] got new task: {8 60 54  0}
Worker[ 3 ]: {8 60 54  0}
Sent for computing:  {8 60 54  0}
{8 60 54  0}
AMG received from Worker:  {8 60 54  0}
AMG sent back to the channel, for Workers : {8 60 54  0}
{8 60 54  0}
AM[ 2 ] received from Worker:  {8 60 54  0}
AM[ 2 ] sent back to the channel, for Workers : 114
Worker[ 3 ] sent task to the magazyn. 114
MagazynGuard received from Worker: 114
MagazynGuard sent to the channel, for Clients 114
Client[ 8 ] got product from MagazynG: 114
Boss sent task to the Lista_Guard: {9 1 6  2}
Lista[ 9 ] got new task: {9 1 6  2}
Worker[ 4 ]: {9 1 6  2}
Sent for computing:  {9 1 6  2}
{9 1 6  2}
MMG received from Worker:  {9 1 6  2}
MMG sent back to the channel, for Workers : {9 1 6  2}
{9 1 6  2}
MM[ 0 ] received from Worker:  {9 1 6  2}
MM[ 0 ] sent back to the channel, for Workers : 6
Worker[ 4 ] sent task to the magazyn. 6
MagazynGuard received from Worker: 6
MagazynGuard sent to the channel, for Clients 6
Client[ 9 ] got product from MagazynG: 6
Boss sent task to the Lista_Guard: {10 52 11  0}
Lista[ 0 ] got new task: {10 52 11  0}
Worker[ 0 ]: {10 52 11  0}
Sent for computing:  {10 52 11  0}
{10 52 11  0}
AMG received from Worker:  {10 52 11  0}
AMG sent back to the channel, for Workers : {10 52 11  0}
{10 52 11  0}
AM[ 0 ] received from Worker:  {10 52 11  0}
AM[ 0 ] sent back to the channel, for Workers : 63
Worker[ 0 ] sent task to the magazyn. 63
MagazynGuard received from Worker: 63
MagazynGuard sent to the channel, for Clients 63
Client[ 10 ] got product from MagazynG: 63
Boss sent task to the Lista_Guard: {11 62 3  2}
Lista[ 1 ] got new task: {11 62 3  2}
Worker[ 1 ]: {11 62 3  2}
Sent for computing:  {11 62 3  2}
{11 62 3  2}
MMG received from Worker:  {11 62 3  2}
MMG sent back to the channel, for Workers : {11 62 3  2}
{11 62 3  2}
MM[ 1 ] received from Worker:  {11 62 3  2}
MM[ 1 ] sent back to the channel, for Workers : 186
Worker[ 1 ] sent task to the magazyn. 186
MagazynGuard received from Worker: 186
MagazynGuard sent to the channel, for Clients 186
Client[ 0 ] got product from MagazynG: 186
Boss sent task to the Lista_Guard: {12 3 19  0}
Lista[ 2 ] got new task: {12 3 19  0}
Worker[ 2 ]: {12 3 19  0}
Sent for computing:  {12 3 19  0}
{12 3 19  0}
AMG received from Worker:  {12 3 19  0}
AMG sent back to the channel, for Workers : {12 3 19  0}
{12 3 19  0}
AM[ 1 ] received from Worker:  {12 3 19  0}
AM[ 1 ] sent back to the channel, for Workers : 22
Worker[ 2 ] sent task to the magazyn. 22
MagazynGuard received from Worker: 22
MagazynGuard sent to the channel, for Clients 22
Client[ 1 ] got product from MagazynG: 22
Boss sent task to the Lista_Guard: {13 97 21  0}
Lista[ 3 ] got new task: {13 97 21  0}
Worker[ 3 ]: {13 97 21  0}
Sent for computing:  {13 97 21  0}
{13 97 21  0}
AMG received from Worker:  {13 97 21  0}
AMG sent back to the channel, for Workers : {13 97 21  0}
{13 97 21  0}
AM[ 2 ] received from Worker:  {13 97 21  0}
AM[ 2 ] sent back to the channel, for Workers : 118
Worker[ 3 ] sent task to the magazyn. 118
MagazynGuard received from Worker: 118
MagazynGuard sent to the channel, for Clients 118
Client[ 2 ] got product from MagazynG: 118
Boss sent task to the Lista_Guard: {14 42 60  2}
Lista[ 4 ] got new task: {14 42 60  2}
Worker[ 4 ]: {14 42 60  2}
Sent for computing:  {14 42 60  2}
{14 42 60  2}
MMG received from Worker:  {14 42 60  2}
MMG sent back to the channel, for Workers : {14 42 60  2}
{14 42 60  2}
MM[ 2 ] received from Worker:  {14 42 60  2}
MM[ 2 ] sent back to the channel, for Workers : 2520
Worker[ 4 ] sent task to the magazyn. 2520
MagazynGuard received from Worker: 2520
MagazynGuard sent to the channel, for Clients 2520
Client[ 3 ] got product from MagazynG: 2520
Boss sent task to the Lista_Guard: {15 79 37  0}
Lista[ 5 ] got new task: {15 79 37  0}
Worker[ 0 ]: {15 79 37  0}
Sent for computing:  {15 79 37  0}
{15 79 37  0}
AMG received from Worker:  {15 79 37  0}
AMG sent back to the channel, for Workers : {15 79 37  0}
{15 79 37  0}
AM[ 0 ] received from Worker:  {15 79 37  0}
AM[ 0 ] sent back to the channel, for Workers : 116
Worker[ 0 ] sent task to the magazyn. 116
MagazynGuard received from Worker: 116
MagazynGuard sent to the channel, for Clients 116
Client[ 4 ] got product from MagazynG: 116
Boss sent task to the Lista_Guard: {16 53 44  1}
Lista[ 6 ] got new task: {16 53 44  1}
Worker[ 1 ]: {16 53 44  1}
Sent for computing:  {16 53 44  1}
{16 53 44  1}
AMG received from Worker:  {16 53 44  1}
AMG sent back to the channel, for Workers : {16 53 44  1}
{16 53 44  1}
AM[ 1 ] received from Worker:  {16 53 44  1}
AM[ 1 ] sent back to the channel, for Workers : 9
Worker[ 1 ] sent task to the magazyn. 9
MagazynGuard received from Worker: 9
MagazynGuard sent to the channel, for Clients 9
Client[ 5 ] got product from MagazynG: 9
Boss sent task to the Lista_Guard: {17 16 58  2}
Lista[ 7 ] got new task: {17 16 58  2}
Worker[ 2 ]: {17 16 58  2}
Sent for computing:  {17 16 58  2}
{17 16 58  2}
MMG received from Worker:  {17 16 58  2}
MMG sent back to the channel, for Workers : {17 16 58  2}
{17 16 58  2}
MM[ 0 ] received from Worker:  {17 16 58  2}
MM[ 0 ] sent back to the channel, for Workers : 928
Worker[ 2 ] sent task to the magazyn. 928
MagazynGuard received from Worker: 928
MagazynGuard sent to the channel, for Clients 928
Client[ 6 ] got product from MagazynG: 928
Boss sent task to the Lista_Guard: {18 91 33  0}
Lista[ 8 ] got new task: {18 91 33  0}
Worker[ 3 ]: {18 91 33  0}
Sent for computing:  {18 91 33  0}
{18 91 33  0}
AMG received from Worker:  {18 91 33  0}
AMG sent back to the channel, for Workers : {18 91 33  0}
{18 91 33  0}
AM[ 2 ] received from Worker:  {18 91 33  0}
AM[ 2 ] sent back to the channel, for Workers : 124
Worker[ 3 ] sent task to the magazyn. 124
MagazynGuard received from Worker: 124
MagazynGuard sent to the channel, for Clients 124
Client[ 7 ] got product from MagazynG: 124
Boss sent task to the Lista_Guard: {19 85 98  2}
Lista[ 9 ] got new task: {19 85 98  2}
Worker[ 4 ]: {19 85 98  2}
Sent for computing:  {19 85 98  2}
{19 85 98  2}
MMG received from Worker:  {19 85 98  2}
MMG sent back to the channel, for Workers : {19 85 98  2}
{19 85 98  2}
MM[ 1 ] received from Worker:  {19 85 98  2}
MM[ 1 ] sent back to the channel, for Workers : 8330
Worker[ 4 ] sent task to the magazyn. 8330
MagazynGuard received from Worker: 8330
MagazynGuard sent to the channel, for Clients 8330
Client[ 8 ] got product from MagazynG: 8330
Boss sent task to the Lista_Guard: {20 27 3  0}
Lista[ 0 ] got new task: {20 27 3  0}
Worker[ 0 ]: {20 27 3  0}
Sent for computing:  {20 27 3  0}
{20 27 3  0}
AMG received from Worker:  {20 27 3  0}
AMG sent back to the channel, for Workers : {20 27 3  0}
{20 27 3  0}
AM[ 0 ] received from Worker:  {20 27 3  0}
AM[ 0 ] sent back to the channel, for Workers : 30
Worker[ 0 ] sent task to the magazyn. 30
MagazynGuard received from Worker: 30
MagazynGuard sent to the channel, for Clients 30
Client[ 9 ] got product from MagazynG: 30
Boss sent task to the Lista_Guard: {21 94 87  1}
Lista[ 1 ] got new task: {21 94 87  1}
Worker[ 1 ]: {21 94 87  1}
Sent for computing:  {21 94 87  1}
{21 94 87  1}
AMG received from Worker:  {21 94 87  1}
AMG sent back to the channel, for Workers : {21 94 87  1}
{21 94 87  1}
AM[ 1 ] received from Worker:  {21 94 87  1}
AM[ 1 ] sent back to the channel, for Workers : 7
Worker[ 1 ] sent task to the magazyn. 7
MagazynGuard received from Worker: 7
MagazynGuard sent to the channel, for Clients 7
Client[ 10 ] got product from MagazynG: 7
Boss sent task to the Lista_Guard: {22 86 11  0}
Lista[ 2 ] got new task: {22 86 11  0}
Worker[ 2 ]: {22 86 11  0}
Sent for computing:  {22 86 11  0}
{22 86 11  0}
AMG received from Worker:  {22 86 11  0}
AMG sent back to the channel, for Workers : {22 86 11  0}
{22 86 11  0}
AM[ 2 ] received from Worker:  {22 86 11  0}
AM[ 2 ] sent back to the channel, for Workers : 97
Worker[ 2 ] sent task to the magazyn. 97
MagazynGuard received from Worker: 97
MagazynGuard sent to the channel, for Clients 97
Client[ 0 ] got product from MagazynG: 97
Boss sent task to the Lista_Guard: {23 85 4  0}
Lista[ 3 ] got new task: {23 85 4  0}
Worker[ 3 ]: {23 85 4  0}
Sent for computing:  {23 85 4  0}
{23 85 4  0}
AMG received from Worker:  {23 85 4  0}
AMG sent back to the channel, for Workers : {23 85 4  0}
{23 85 4  0}
AM[ 0 ] received from Worker:  {23 85 4  0}
AM[ 0 ] sent back to the channel, for Workers : 89
Worker[ 3 ] sent task to the magazyn. 89
MagazynGuard received from Worker: 89
MagazynGuard sent to the channel, for Clients 89
Client[ 1 ] got product from MagazynG: 89
Boss sent task to the Lista_Guard: {24 17 40  2}
Lista[ 4 ] got new task: {24 17 40  2}
Worker[ 4 ]: {24 17 40  2}
Sent for computing:  {24 17 40  2}
{24 17 40  2}
MMG received from Worker:  {24 17 40  2}
MMG sent back to the channel, for Workers : {24 17 40  2}
{24 17 40  2}
MM[ 2 ] received from Worker:  {24 17 40  2}
MM[ 2 ] sent back to the channel, for Workers : 680
Worker[ 4 ] sent task to the magazyn. 680
MagazynGuard received from Worker: 680
MagazynGuard sent to the channel, for Clients 680
Client[ 2 ] got product from MagazynG: 680
Boss sent task to the Lista_Guard: {25 41 52  1}
Lista[ 5 ] got new task: {25 41 52  1}
Worker[ 0 ]: {25 41 52  1}
Sent for computing:  {25 41 52  1}
{25 41 52  1}
AMG received from Worker:  {25 41 52  1}
AMG sent back to the channel, for Workers : {25 41 52  1}
{25 41 52  1}
AM[ 1 ] received from Worker:  {25 41 52  1}
AM[ 1 ] sent back to the channel, for Workers : -11
Worker[ 0 ] sent task to the magazyn. -11
MagazynGuard received from Worker: -11
MagazynGuard sent to the channel, for Clients -11
Client[ 3 ] got product from MagazynG: -11
Boss sent task to the Lista_Guard: {26 2 91  1}
Lista[ 6 ] got new task: {26 2 91  1}
Worker[ 1 ]: {26 2 91  1}
Sent for computing:  {26 2 91  1}
{26 2 91  1}
AMG received from Worker:  {26 2 91  1}
AMG sent back to the channel, for Workers : {26 2 91  1}
{26 2 91  1}
AM[ 2 ] received from Worker:  {26 2 91  1}
AM[ 2 ] sent back to the channel, for Workers : -89
Worker[ 1 ] sent task to the magazyn. -89
MagazynGuard received from Worker: -89
MagazynGuard sent to the channel, for Clients -89
Client[ 4 ] got product from MagazynG: -89
Boss sent task to the Lista_Guard: {27 79 55  0}
Lista[ 7 ] got new task: {27 79 55  0}
Worker[ 2 ]: {27 79 55  0}
Sent for computing:  {27 79 55  0}
{27 79 55  0}
AMG received from Worker:  {27 79 55  0}
AMG sent back to the channel, for Workers : {27 79 55  0}
{27 79 55  0}
AM[ 0 ] received from Worker:  {27 79 55  0}
AM[ 0 ] sent back to the channel, for Workers : 134
Worker[ 2 ] sent task to the magazyn. 134
MagazynGuard received from Worker: 134
MagazynGuard sent to the channel, for Clients 134
Client[ 5 ] got product from MagazynG: 134
Boss sent task to the Lista_Guard: {28 44 69  0}
Lista[ 8 ] got new task: {28 44 69  0}
Worker[ 3 ]: {28 44 69  0}
Sent for computing:  {28 44 69  0}
{28 44 69  0}
AMG received from Worker:  {28 44 69  0}
AMG sent back to the channel, for Workers : {28 44 69  0}
{28 44 69  0}
AM[ 1 ] received from Worker:  {28 44 69  0}
AM[ 1 ] sent back to the channel, for Workers : 113
Worker[ 3 ] sent task to the magazyn. 113
MagazynGuard received from Worker: 113
MagazynGuard sent to the channel, for Clients 113
Client[ 6 ] got product from MagazynG: 113
Boss sent task to the Lista_Guard: {29 5 63  1}
Lista[ 9 ] got new task: {29 5 63  1}
Worker[ 4 ]: {29 5 63  1}
Sent for computing:  {29 5 63  1}
{29 5 63  1}
AMG received from Worker:  {29 5 63  1}
AMG sent back to the channel, for Workers : {29 5 63  1}
{29 5 63  1}
AM[ 2 ] received from Worker:  {29 5 63  1}
AM[ 2 ] sent back to the channel, for Workers : -58
Worker[ 4 ] sent task to the magazyn. -58
MagazynGuard received from Worker: -58
MagazynGuard sent to the channel, for Clients -58
Client[ 7 ] got product from MagazynG: -58
Boss sent task to the Lista_Guard: {30 31 14  1}
Lista[ 0 ] got new task: {30 31 14  1}
Worker[ 0 ]: {30 31 14  1}
Sent for computing:  {30 31 14  1}
{30 31 14  1}
AMG received from Worker:  {30 31 14  1}
AMG sent back to the channel, for Workers : {30 31 14  1}
{30 31 14  1}
AM[ 0 ] received from Worker:  {30 31 14  1}
AM[ 0 ] sent back to the channel, for Workers : 17
Worker[ 0 ] sent task to the magazyn. 17
MagazynGuard received from Worker: 17
MagazynGuard sent to the channel, for Clients 17
Client[ 8 ] got product from MagazynG: 17
Boss sent task to the Lista_Guard: {31 71 85  1}
Lista[ 1 ] got new task: {31 71 85  1}
Worker[ 1 ]: {31 71 85  1}
Sent for computing:  {31 71 85  1}
{31 71 85  1}
AMG received from Worker:  {31 71 85  1}
AMG sent back to the channel, for Workers : {31 71 85  1}
{31 71 85  1}
AM[ 1 ] received from Worker:  {31 71 85  1}
AM[ 1 ] sent back to the channel, for Workers : -14
Worker[ 1 ] sent task to the magazyn. -14
MagazynGuard received from Worker: -14
MagazynGuard sent to the channel, for Clients -14
Client[ 9 ] got product from MagazynG: -14
Boss sent task to the Lista_Guard: {32 30 21  0}
Lista[ 2 ] got new task: {32 30 21  0}
Worker[ 2 ]: {32 30 21  0}
Sent for computing:  {32 30 21  0}
{32 30 21  0}
AMG received from Worker:  {32 30 21  0}
AMG sent back to the channel, for Workers : {32 30 21  0}
{32 30 21  0}
AM[ 2 ] received from Worker:  {32 30 21  0}
AM[ 2 ] sent back to the channel, for Workers : 51
Worker[ 2 ] sent task to the magazyn. 51
MagazynGuard received from Worker: 51
MagazynGuard sent to the channel, for Clients 51
Client[ 10 ] got product from MagazynG: 51
Boss sent task to the Lista_Guard: {33 1 57  0}
Lista[ 3 ] got new task: {33 1 57  0}
Worker[ 3 ]: {33 1 57  0}
Sent for computing:  {33 1 57  0}
{33 1 57  0}
AMG received from Worker:  {33 1 57  0}
AMG sent back to the channel, for Workers : {33 1 57  0}
{33 1 57  0}
AM[ 0 ] received from Worker:  {33 1 57  0}
AM[ 0 ] sent back to the channel, for Workers : 58
Worker[ 3 ] sent task to the magazyn. 58
MagazynGuard received from Worker: 58
MagazynGuard sent to the channel, for Clients 58
Client[ 0 ] got product from MagazynG: 58
Boss sent task to the Lista_Guard: {34 87 21  2}
Lista[ 4 ] got new task: {34 87 21  2}
Worker[ 4 ]: {34 87 21  2}
Sent for computing:  {34 87 21  2}
{34 87 21  2}
MMG received from Worker:  {34 87 21  2}
MMG sent back to the channel, for Workers : {34 87 21  2}
{34 87 21  2}
MM[ 0 ] received from Worker:  {34 87 21  2}
MM[ 0 ] sent back to the channel, for Workers : 1827
Worker[ 4 ] sent task to the magazyn. 1827
MagazynGuard received from Worker: 1827
MagazynGuard sent to the channel, for Clients 1827
Client[ 1 ] got product from MagazynG: 1827
Boss sent task to the Lista_Guard: {35 89 12  2}
Lista[ 5 ] got new task: {35 89 12  2}
Worker[ 0 ]: {35 89 12  2}
Sent for computing:  {35 89 12  2}
{35 89 12  2}
MMG received from Worker:  {35 89 12  2}
MMG sent back to the channel, for Workers : {35 89 12  2}
{35 89 12  2}
MM[ 1 ] received from Worker:  {35 89 12  2}
MM[ 1 ] sent back to the channel, for Workers : 1068
Worker[ 0 ] sent task to the magazyn. 1068
MagazynGuard received from Worker: 1068
MagazynGuard sent to the channel, for Clients 1068
Client[ 2 ] got product from MagazynG: 1068
Boss sent task to the Lista_Guard: {36 20 8  1}
Lista[ 6 ] got new task: {36 20 8  1}
Worker[ 1 ]: {36 20 8  1}
Sent for computing:  {36 20 8  1}
{36 20 8  1}
AMG received from Worker:  {36 20 8  1}
AMG sent back to the channel, for Workers : {36 20 8  1}
{36 20 8  1}
AM[ 1 ] received from Worker:  {36 20 8  1}
AM[ 1 ] sent back to the channel, for Workers : 12
Worker[ 1 ] sent task to the magazyn. 12
MagazynGuard received from Worker: 12
MagazynGuard sent to the channel, for Clients 12
Client[ 3 ] got product from MagazynG: 12
Boss sent task to the Lista_Guard: {37 54 96  2}
Lista[ 7 ] got new task: {37 54 96  2}
Worker[ 2 ]: {37 54 96  2}
Sent for computing:  {37 54 96  2}
{37 54 96  2}
MMG received from Worker:  {37 54 96  2}
MMG sent back to the channel, for Workers : {37 54 96  2}
{37 54 96  2}
MM[ 2 ] received from Worker:  {37 54 96  2}
MM[ 2 ] sent back to the channel, for Workers : 5184
Worker[ 2 ] sent task to the magazyn. 5184
MagazynGuard received from Worker: 5184
MagazynGuard sent to the channel, for Clients 5184
Client[ 4 ] got product from MagazynG: 5184
Boss sent task to the Lista_Guard: {38 87 33  1}
Lista[ 8 ] got new task: {38 87 33  1}
Worker[ 3 ]: {38 87 33  1}
Sent for computing:  {38 87 33  1}
{38 87 33  1}
AMG received from Worker:  {38 87 33  1}
AMG sent back to the channel, for Workers : {38 87 33  1}
{38 87 33  1}
AM[ 2 ] received from Worker:  {38 87 33  1}
AM[ 2 ] sent back to the channel, for Workers : 54
Worker[ 3 ] sent task to the magazyn. 54
MagazynGuard received from Worker: 54
MagazynGuard sent to the channel, for Clients 54
Client[ 5 ] got product from MagazynG: 54
Boss sent task to the Lista_Guard: {39 62 61  1}
Lista[ 9 ] got new task: {39 62 61  1}
Worker[ 4 ]: {39 62 61  1}
Sent for computing:  {39 62 61  1}
{39 62 61  1}
AMG received from Worker:  {39 62 61  1}
AMG sent back to the channel, for Workers : {39 62 61  1}
{39 62 61  1}
AM[ 0 ] received from Worker:  {39 62 61  1}
AM[ 0 ] sent back to the channel, for Workers : 1
Worker[ 4 ] sent task to the magazyn. 1
MagazynGuard received from Worker: 1
MagazynGuard sent to the channel, for Clients 1
Client[ 6 ] got product from MagazynG: 1
Boss sent task to the Lista_Guard: {40 61 52  0}
Lista[ 0 ] got new task: {40 61 52  0}
Worker[ 0 ]: {40 61 52  0}
Sent for computing:  {40 61 52  0}
{40 61 52  0}
AMG received from Worker:  {40 61 52  0}
AMG sent back to the channel, for Workers : {40 61 52  0}
{40 61 52  0}
AM[ 1 ] received from Worker:  {40 61 52  0}
AM[ 1 ] sent back to the channel, for Workers : 113
Worker[ 0 ] sent task to the magazyn. 113
MagazynGuard received from Worker: 113
MagazynGuard sent to the channel, for Clients 113
Client[ 7 ] got product from MagazynG: 113
Boss sent task to the Lista_Guard: {41 40 38  1}
Lista[ 1 ] got new task: {41 40 38  1}
Worker[ 1 ]: {41 40 38  1}
Sent for computing:  {41 40 38  1}
{41 40 38  1}
AMG received from Worker:  {41 40 38  1}
AMG sent back to the channel, for Workers : {41 40 38  1}
{41 40 38  1}
AM[ 2 ] received from Worker:  {41 40 38  1}
AM[ 2 ] sent back to the channel, for Workers : 2
Worker[ 1 ] sent task to the magazyn. 2
MagazynGuard received from Worker: 2
MagazynGuard sent to the channel, for Clients 2
Client[ 8 ] got product from MagazynG: 2
Boss sent task to the Lista_Guard: {42 10 16  2}
Lista[ 2 ] got new task: {42 10 16  2}
Worker[ 2 ]: {42 10 16  2}
Sent for computing:  {42 10 16  2}
{42 10 16  2}
MMG received from Worker:  {42 10 16  2}
MMG sent back to the channel, for Workers : {42 10 16  2}
{42 10 16  2}
MM[ 0 ] received from Worker:  {42 10 16  2}
MM[ 0 ] sent back to the channel, for Workers : 160
Worker[ 2 ] sent task to the magazyn. 160
MagazynGuard received from Worker: 160
MagazynGuard sent to the channel, for Clients 160
Client[ 9 ] got product from MagazynG: 160
Boss sent task to the Lista_Guard: {43 41 1  2}
Lista[ 3 ] got new task: {43 41 1  2}
Worker[ 3 ]: {43 41 1  2}
Sent for computing:  {43 41 1  2}
{43 41 1  2}
MMG received from Worker:  {43 41 1  2}
MMG sent back to the channel, for Workers : {43 41 1  2}
{43 41 1  2}
MM[ 1 ] received from Worker:  {43 41 1  2}
MM[ 1 ] sent back to the channel, for Workers : 41
Worker[ 3 ] sent task to the magazyn. 41
MagazynGuard received from Worker: 41
MagazynGuard sent to the channel, for Clients 41
Client[ 10 ] got product from MagazynG: 41
Boss sent task to the Lista_Guard: {44 22 91  2}
Lista[ 4 ] got new task: {44 22 91  2}
Worker[ 4 ]: {44 22 91  2}
Sent for computing:  {44 22 91  2}
{44 22 91  2}
MMG received from Worker:  {44 22 91  2}
MMG sent back to the channel, for Workers : {44 22 91  2}
{44 22 91  2}
MM[ 2 ] received from Worker:  {44 22 91  2}
MM[ 2 ] sent back to the channel, for Workers : 2002
Worker[ 4 ] sent task to the magazyn. 2002
MagazynGuard received from Worker: 2002
MagazynGuard sent to the channel, for Clients 2002
Client[ 0 ] got product from MagazynG: 2002
Boss sent task to the Lista_Guard: {45 39 73  1}
Lista[ 5 ] got new task: {45 39 73  1}
Worker[ 0 ]: {45 39 73  1}
Sent for computing:  {45 39 73  1}
{45 39 73  1}
AMG received from Worker:  {45 39 73  1}
AMG sent back to the channel, for Workers : {45 39 73  1}
{45 39 73  1}
AM[ 0 ] received from Worker:  {45 39 73  1}
AM[ 0 ] sent back to the channel, for Workers : -34
Worker[ 0 ] sent task to the magazyn. -34
MagazynGuard received from Worker: -34
MagazynGuard sent to the channel, for Clients -34
Client[ 1 ] got product from MagazynG: -34
Boss sent task to the Lista_Guard: {46 25 94  0}
Lista[ 6 ] got new task: {46 25 94  0}
Worker[ 1 ]: {46 25 94  0}
Sent for computing:  {46 25 94  0}
{46 25 94  0}
AMG received from Worker:  {46 25 94  0}
AMG sent back to the channel, for Workers : {46 25 94  0}
{46 25 94  0}
AM[ 1 ] received from Worker:  {46 25 94  0}
AM[ 1 ] sent back to the channel, for Workers : 119
Worker[ 1 ] sent task to the magazyn. 119
MagazynGuard received from Worker: 119
MagazynGuard sent to the channel, for Clients 119
Client[ 2 ] got product from MagazynG: 119
Boss sent task to the Lista_Guard: {47 23 72  2}
Lista[ 7 ] got new task: {47 23 72  2}
Worker[ 2 ]: {47 23 72  2}
Sent for computing:  {47 23 72  2}
{47 23 72  2}
MMG received from Worker:  {47 23 72  2}
MMG sent back to the channel, for Workers : {47 23 72  2}
{47 23 72  2}
MM[ 0 ] received from Worker:  {47 23 72  2}
MM[ 0 ] sent back to the channel, for Workers : 1656
Worker[ 2 ] sent task to the magazyn. 1656
MagazynGuard received from Worker: 1656
MagazynGuard sent to the channel, for Clients 1656
Client[ 3 ] got product from MagazynG: 1656
Boss sent task to the Lista_Guard: {48 80 93  1}
Lista[ 8 ] got new task: {48 80 93  1}
Worker[ 3 ]: {48 80 93  1}
Sent for computing:  {48 80 93  1}
{48 80 93  1}
AMG received from Worker:  {48 80 93  1}
AMG sent back to the channel, for Workers : {48 80 93  1}
{48 80 93  1}
AM[ 2 ] received from Worker:  {48 80 93  1}
AM[ 2 ] sent back to the channel, for Workers : -13
Worker[ 3 ] sent task to the magazyn. -13
MagazynGuard received from Worker: -13
MagazynGuard sent to the channel, for Clients -13
Client[ 4 ] got product from MagazynG: -13
Boss sent task to the Lista_Guard: {49 12 44  2}
Lista[ 9 ] got new task: {49 12 44  2}
Worker[ 4 ]: {49 12 44  2}
Sent for computing:  {49 12 44  2}
{49 12 44  2}
MMG received from Worker:  {49 12 44  2}
MMG sent back to the channel, for Workers : {49 12 44  2}
{49 12 44  2}
MM[ 1 ] received from Worker:  {49 12 44  2}
MM[ 1 ] sent back to the channel, for Workers : 528
Worker[ 4 ] sent task to the magazyn. 528
MagazynGuard received from Worker: 528
MagazynGuard sent to the channel, for Clients 528
Client[ 5 ] got product from MagazynG: 528
Boss sent task to the Lista_Guard: {50 9 9  1}
Lista[ 0 ] got new task: {50 9 9  1}
Worker[ 0 ]: {50 9 9  1}
Sent for computing:  {50 9 9  1}
{50 9 9  1}
AMG received from Worker:  {50 9 9  1}
AMG sent back to the channel, for Workers : {50 9 9  1}
{50 9 9  1}
AM[ 0 ] received from Worker:  {50 9 9  1}
AM[ 0 ] sent back to the channel, for Workers : 0
Worker[ 0 ] sent task to the magazyn. 0
MagazynGuard received from Worker: 0
MagazynGuard sent to the channel, for Clients 0
Client[ 6 ] got product from MagazynG: 0
Boss sent task to the Lista_Guard: {51 76 75  1}
Lista[ 1 ] got new task: {51 76 75  1}
Worker[ 1 ]: {51 76 75  1}
Sent for computing:  {51 76 75  1}
{51 76 75  1}
AMG received from Worker:  {51 76 75  1}
AMG sent back to the channel, for Workers : {51 76 75  1}
{51 76 75  1}
AM[ 1 ] received from Worker:  {51 76 75  1}
AM[ 1 ] sent back to the channel, for Workers : 1
Worker[ 1 ] sent task to the magazyn. 1
MagazynGuard received from Worker: 1
MagazynGuard sent to the channel, for Clients 1
Client[ 7 ] got product from MagazynG: 1
Boss sent task to the Lista_Guard: {52 15 59  0}
Lista[ 2 ] got new task: {52 15 59  0}
Worker[ 2 ]: {52 15 59  0}
Sent for computing:  {52 15 59  0}
{52 15 59  0}
AMG received from Worker:  {52 15 59  0}
AMG sent back to the channel, for Workers : {52 15 59  0}
{52 15 59  0}
AM[ 2 ] received from Worker:  {52 15 59  0}
AM[ 2 ] sent back to the channel, for Workers : 74
Worker[ 2 ] sent task to the magazyn. 74
MagazynGuard received from Worker: 74
MagazynGuard sent to the channel, for Clients 74
Client[ 8 ] got product from MagazynG: 74
Boss sent task to the Lista_Guard: {53 88 58  1}
Lista[ 3 ] got new task: {53 88 58  1}
Worker[ 3 ]: {53 88 58  1}
Sent for computing:  {53 88 58  1}
{53 88 58  1}
AMG received from Worker:  {53 88 58  1}
AMG sent back to the channel, for Workers : {53 88 58  1}
{53 88 58  1}
AM[ 0 ] received from Worker:  {53 88 58  1}
